%YAML 1.1
%TAG !u! tag:unity3d.com,2011:
--- !u!1 &6265035386116402688
GameObject:
  m_ObjectHideFlags: 0
  m_CorrespondingSourceObject: {fileID: 0}
  m_PrefabInstance: {fileID: 0}
  m_PrefabAsset: {fileID: 0}
  serializedVersion: 6
  m_Component:
  - component: {fileID: 6265035386116402694}
  - component: {fileID: 6265035386116402692}
  - component: {fileID: 6265035386116402691}
  - component: {fileID: 6265035386116402690}
  - component: {fileID: 6265035386116402689}
  m_Layer: 0
  m_Name: WaterAmmo
  m_TagString: WaterAmmo
  m_Icon: {fileID: 0}
  m_NavMeshLayer: 0
  m_StaticEditorFlags: 0
  m_IsActive: 1
--- !u!4 &6265035386116402694
Transform:
  m_ObjectHideFlags: 0
  m_CorrespondingSourceObject: {fileID: 0}
  m_PrefabInstance: {fileID: 0}
  m_PrefabAsset: {fileID: 0}
  m_GameObject: {fileID: 6265035386116402688}
  m_LocalRotation: {x: 0, y: 0, z: 0, w: 1}
  m_LocalPosition: {x: 13.45, y: 1.5, z: -1.75}
  m_LocalScale: {x: 0.37332255, y: 0.3733223, z: 0.3733223}
  m_Children: []
  m_Father: {fileID: 0}
  m_RootOrder: 0
  m_LocalEulerAnglesHint: {x: 0, y: 0, z: 0}
--- !u!65 &6265035386116402692
BoxCollider:
  m_ObjectHideFlags: 0
  m_CorrespondingSourceObject: {fileID: 0}
  m_PrefabInstance: {fileID: 0}
  m_PrefabAsset: {fileID: 0}
  m_GameObject: {fileID: 6265035386116402688}
  m_Material: {fileID: 0}
  m_IsTrigger: 1
  m_Enabled: 1
  serializedVersion: 2
  m_Size: {x: 1, y: 2.45, z: 1}
  m_Center: {x: 0, y: 0, z: 0}
--- !u!23 &6265035386116402691
MeshRenderer:
  m_ObjectHideFlags: 0
  m_CorrespondingSourceObject: {fileID: 0}
  m_PrefabInstance: {fileID: 0}
  m_PrefabAsset: {fileID: 0}
  m_GameObject: {fileID: 6265035386116402688}
  m_Enabled: 1
  m_CastShadows: 1
  m_ReceiveShadows: 1
  m_DynamicOccludee: 1
  m_MotionVectors: 1
  m_LightProbeUsage: 1
  m_ReflectionProbeUsage: 1
  m_RenderingLayerMask: 4294967295
  m_RendererPriority: 0
  m_Materials:
  - {fileID: 2100000, guid: 91123875f929b4cdbb4268a9800bb942, type: 2}
  m_StaticBatchInfo:
    firstSubMesh: 0
    subMeshCount: 0
  m_StaticBatchRoot: {fileID: 0}
  m_ProbeAnchor: {fileID: 0}
  m_LightProbeVolumeOverride: {fileID: 0}
  m_ScaleInLightmap: 1
  m_PreserveUVs: 1
  m_IgnoreNormalsForChartDetection: 0
  m_ImportantGI: 0
  m_StitchLightmapSeams: 0
  m_SelectedEditorRenderState: 3
  m_MinimumChartSize: 4
  m_AutoUVMaxDistance: 0.5
  m_AutoUVMaxAngle: 89
  m_LightmapParameters: {fileID: 0}
  m_SortingLayerID: 0
  m_SortingLayer: 0
  m_SortingOrder: 0
--- !u!54 &6265035386116402690
Rigidbody:
  m_ObjectHideFlags: 0
  m_CorrespondingSourceObject: {fileID: 0}
  m_PrefabInstance: {fileID: 0}
  m_PrefabAsset: {fileID: 0}
  m_GameObject: {fileID: 6265035386116402688}
  serializedVersion: 2
  m_Mass: 1
  m_Drag: 0
  m_AngularDrag: 0.05
  m_UseGravity: 0
  m_IsKinematic: 0
  m_Interpolate: 0
  m_Constraints: 0
  m_CollisionDetection: 0
--- !u!114 &6265035386116402689
MonoBehaviour:
  m_ObjectHideFlags: 0
  m_CorrespondingSourceObject: {fileID: 0}
  m_PrefabInstance: {fileID: 0}
  m_PrefabAsset: {fileID: 0}
  m_GameObject: {fileID: 6265035386116402688}
  m_Enabled: 1
  m_EditorHideFlags: 0
  m_Script: {fileID: 11500000, guid: a56d6abe7420486884df480ce5fafff1, type: 3}
  m_Name: 
  m_EditorClassIdentifier: 
  flying: 0
  hitting: 0
  flyTime: 0
  hittingTime: 0
  markForDestruction: 0
  target: {x: 0, y: 0, z: 0}
  targetObject: {fileID: 0}
  preMain: {fileID: 7387455406892463534, guid: 3f287a9c31521ab439d20fecf0983afa, type: 3}
  preTail: {fileID: 0}
  preHit: {fileID: 8733654948633665245, guid: 70189592fa38c804a979e8c3086a99b8, type: 3}
  secondLevelHit: {fileID: 3820584175233439318, guid: b1cadd13dbcb1154796c49e8ad58ddf8,
    type: 3}
  mainObject: {fileID: 0}
  hitObject: {fileID: 0}
  rootPosition: {x: 0, y: 0, z: 0}
  leftHandPosition: {x: 0, y: 0, z: 0}
  leftArmDirection: {x: 0, y: 0, z: 0}
  rightHandPosition: {x: 0, y: 0, z: 0}
  rightArmDirection: {x: 0, y: 0, z: 0}
